<svg xmlns="http://www.w3.org/2000/svg" width="91.344" height="23.281" viewBox="0 0 91.344 23.281">
  <defs>
    <style>
      .cls-1 {
        fill: #fff;
        fill-rule: evenodd;
      }
    </style>
  </defs>
  <path id="menu_text_home.svg" class="cls-1" d="M161.748,102.092c-0.06-2.52-.09-6.84-0.09-11.039,0-3.27.03-6.48,0.09-8.67v-0.06a1.747,1.747,0,0,0-3.48.06c0.03,1.2.06,2.4,0.06,3.48,0,1.65-.03,3-0.06,3.72a0.448,0.448,0,0,1-.48.54c-1.08.03-3.329,0.03-5.519,0.03-2.16,0-4.23,0-4.98-.03a0.471,0.471,0,0,1-.48-0.57c-0.03-.75-0.06-2.1-0.06-3.72,0-1.05.03-2.25,0.06-3.45v-0.06a1.609,1.609,0,0,0-1.74-1.56,1.553,1.553,0,0,0-1.71,1.62c0.06,2.28.09,5.46,0.09,8.82,0,3.75-.03,7.71-0.09,10.889v0.03a1.556,1.556,0,0,0,1.74,1.44,1.508,1.508,0,0,0,1.71-1.41v-0.06c-0.06-1.38-.06-2.73-0.06-3.93,0-1.98.03-3.57,0.06-4.35a0.462,0.462,0,0,1,.57-0.48c1.17-.03,3.48-0.06,5.7-0.06,1.8,0,3.569.03,4.619,0.06,0.45,0.03.57,0.09,0.57,0.57,0.03,0.81.06,2.37,0.06,4.26,0,1.23-.03,2.58-0.06,3.93v0.06a1.768,1.768,0,0,0,3.48-.03v-0.03Zm15.261,1.77c6.6,0,11.579-4.65,11.579-11.639a11.565,11.565,0,1,0-23.129,0C165.459,99.212,170.409,103.862,177.009,103.862Zm0-3.15c-4.44,0-8.04-3.33-8.04-8.49,0-5.19,3.6-8.55,8.04-8.55s8.039,3.36,8.039,8.55C185.048,97.382,181.448,100.712,177.009,100.712Zm14.87,1.53a1.425,1.425,0,0,0,1.59,1.35,1.653,1.653,0,0,0,1.8-1.5c0.15-4.14.57-13.259,0.78-15.9,0.06-.63.18-0.87,0.33-0.87a0.747,0.747,0,0,1,.39.57c1.11,3.54,3.75,13.05,4.71,15.329a2.329,2.329,0,0,0,2.16,1.68,2.594,2.594,0,0,0,2.339-1.71c1.23-3.21,4.32-12.959,4.98-15.449a0.78,0.78,0,0,1,.45-0.63c0.15,0,.27.21,0.27,0.72,0,0,.3,11.909.6,16.2a1.676,1.676,0,0,0,1.8,1.56,1.609,1.609,0,0,0,1.74-1.56v-0.12c-0.24-4.26-.9-14.009-0.99-17.879a3.094,3.094,0,0,0-3-3.27,3.313,3.313,0,0,0-3.09,2.46c-1.17,3.42-3.569,11.76-4.709,14.519a0.343,0.343,0,0,1-.27.27,0.372,0.372,0,0,1-.3-0.27c-0.72-1.47-3.36-10.77-4.5-14.369a3.281,3.281,0,0,0-3.03-2.58c-1.41,0-2.79,1.14-2.91,3.36-0.24,4.35-.93,12.779-1.14,18.029v0.06Zm40.36-18.389a1.651,1.651,0,0,0,1.769-1.62,1.6,1.6,0,0,0-1.679-1.59c-0.45-.03-2.1-0.06-3.81-0.06-1.68,0-3.39.03-3.93,0.06-2.43.12-3.99,1.38-4.05,3.78-0.06,1.89-.09,5.97-0.09,9.63,0,2.43,0,4.65.06,5.91,0.12,2.64,1.83,3.63,4.59,3.84,0.39,0.03,2.13.06,3.84,0.06,1.74,0,3.48-.03,3.87-0.06a1.749,1.749,0,0,0,1.889-1.68,1.521,1.521,0,0,0-1.619-1.53h-0.15c-0.57.03-2.49,0.06-4.26,0.06-4.23,0-4.71-.06-4.86-1.44-0.06-.51-0.09-1.2-0.09-5.67,0-.63.3-0.66,4.02-0.66,1.14,0,2.28.03,3.03,0.09h0.15a1.59,1.59,0,0,0,1.59-1.71,1.51,1.51,0,0,0-1.68-1.59c-0.54.03-1.98,0.03-3.36,0.03-3.69,0-3.72,0-3.72-.6,0.03-1.74,0-3.21.06-3.93,0.09-1.29.72-1.35,3.72-1.35C229.569,83.823,232.239,83.853,232.239,83.853Z" transform="translate(-143.344 -80.594)"/>
</svg>
